%YAML 1.1
%TAG !u! tag:unity3d.com,2011:
--- !u!114 &11400000
MonoBehaviour:
  m_ObjectHideFlags: 0
  m_PrefabParentObject: {fileID: 0}
  m_PrefabInternal: {fileID: 0}
  m_GameObject: {fileID: 0}
  m_Enabled: 1
  m_EditorHideFlags: 0
  m_Script: {fileID: 11500000, guid: e1d95b61cd087f7489d8903ead8497f0, type: 3}
  m_Name: 1BCS005+
  m_EditorClassIdentifier: 
  id: Bad Cat Sad
  headline: Dog and Cat no Longer Friends.
  summary: 'Resident Dog and Cat of #55 East Apple Orchard are no longer friends.

    Cat has packed a bag of sardines and hit the road, trying to make it big in Howlywood.'
  image: {fileID: 0}
  topic: {fileID: 11400000, guid: 191be54792b5ce348bda531ed7ed36b4, type: 2}
  changeInOpinion: 25
  transmissionType: {fileID: 11400000, guid: 76b122092f57a114cbe1dff007b2f1ac, type: 2}
