%YAML 1.1
%TAG !u! tag:unity3d.com,2011:
--- !u!114 &11400000
MonoBehaviour:
  m_ObjectHideFlags: 0
  m_PrefabParentObject: {fileID: 0}
  m_PrefabInternal: {fileID: 0}
  m_GameObject: {fileID: 0}
  m_Enabled: 1
  m_EditorHideFlags: 0
  m_Script: {fileID: 11500000, guid: e1d95b61cd087f7489d8903ead8497f0, type: 3}
  m_Name: 2BTH006-
  m_EditorClassIdentifier: 
  id: Bad Tech Happy
  headline: Grandma Figures Out the Interweb.
  summary: Grandma Bernice of Colorado has figured out how to use the interweb. Unfortunately
    for Grandson, the history search as well...
  image: {fileID: 0}
  topic: {fileID: 11400000, guid: 59cc251f2eeaa7349b6ce6897c279d80, type: 2}
  changeInOpinion: -25
  transmissionType: {fileID: 11400000, guid: c00dfd67d4fc37045ab057cb654366a3, type: 2}
