%YAML 1.1
%TAG !u! tag:unity3d.com,2011:
--- !u!114 &11400000
MonoBehaviour:
  m_ObjectHideFlags: 0
  m_PrefabParentObject: {fileID: 0}
  m_PrefabInternal: {fileID: 0}
  m_GameObject: {fileID: 0}
  m_Enabled: 1
  m_EditorHideFlags: 0
  m_Script: {fileID: 11500000, guid: e1d95b61cd087f7489d8903ead8497f0, type: 3}
  m_Name: 3GGH010+
  m_EditorClassIdentifier: 
  id: Good Gov't Happy
  headline: Mini Golf Goes Boom.
  summary: 'A mini golf course owned by the Prez has been condemed due to a bad infestation
    of pidgeons.

    "Those damn things were everywhere!" said the Prez.

    "Easier to just burn it all down."'
  image: {fileID: 0}
  topic: {fileID: 11400000, guid: e65ae33f19016434089678e643317d68, type: 2}
  changeInOpinion: 25
  transmissionType: {fileID: 11400000, guid: c00dfd67d4fc37045ab057cb654366a3, type: 2}
