%YAML 1.1
%TAG !u! tag:unity3d.com,2011:
--- !u!114 &11400000
MonoBehaviour:
  m_ObjectHideFlags: 0
  m_PrefabParentObject: {fileID: 0}
  m_PrefabInternal: {fileID: 0}
  m_GameObject: {fileID: 0}
  m_Enabled: 1
  m_EditorHideFlags: 0
  m_Script: {fileID: 11500000, guid: e1d95b61cd087f7489d8903ead8497f0, type: 3}
  m_Name: 3GGS002+
  m_EditorClassIdentifier: 
  id: Good Gov't Sad
  headline: Whitehouse Moose-Take.
  summary: 'Today the government was taken over by the Candia Royal Moose Mounted
    Police.

    "We shall bring you healthcare and maple syrup." said a Moose Mountie.

    (and there was much rejoicing...yay)'
  image: {fileID: 0}
  topic: {fileID: 11400000, guid: e65ae33f19016434089678e643317d68, type: 2}
  changeInOpinion: 25
  transmissionType: {fileID: 11400000, guid: 76b122092f57a114cbe1dff007b2f1ac, type: 2}
