%YAML 1.1
%TAG !u! tag:unity3d.com,2011:
--- !u!114 &11400000
MonoBehaviour:
  m_ObjectHideFlags: 0
  m_PrefabParentObject: {fileID: 0}
  m_PrefabInternal: {fileID: 0}
  m_GameObject: {fileID: 0}
  m_Enabled: 1
  m_EditorHideFlags: 0
  m_Script: {fileID: 11500000, guid: e1d95b61cd087f7489d8903ead8497f0, type: 3}
  m_Name: AntiCatSad
  m_EditorClassIdentifier: 
  id: 
  headline: 
  summary: 
  image: {fileID: 0}
  topic: {fileID: 0}
  changeInOpinion: 0
  emoState: {fileID: 0}
