%YAML 1.1
%TAG !u! tag:unity3d.com,2011:
--- !u!114 &11400000
MonoBehaviour:
  m_ObjectHideFlags: 0
  m_PrefabParentObject: {fileID: 0}
  m_PrefabInternal: {fileID: 0}
  m_GameObject: {fileID: 0}
  m_Enabled: 1
  m_EditorHideFlags: 0
  m_Script: {fileID: 11500000, guid: 3b9338ca06b3d804b98d287bf3488dec, type: 3}
  m_Name: Calm
  m_EditorClassIdentifier: 
  id: calm
  icon: {fileID: 21300000, guid: cf2c0647f9d064d43b7ce8b5e8d5ad44, type: 3}
  fullIDs:
  - {fileID: 11400000}
  nearIDs:
  - {fileID: 11400000, guid: c00dfd67d4fc37045ab057cb654366a3, type: 2}
  - {fileID: 11400000, guid: 76b122092f57a114cbe1dff007b2f1ac, type: 2}
  backfireIDs:
  - {fileID: 11400000, guid: 9d1fcd8277e7ecf44bf920db650e626c, type: 2}
