%YAML 1.1
%TAG !u! tag:unity3d.com,2011:
--- !u!114 &11400000
MonoBehaviour:
  m_ObjectHideFlags: 0
  m_PrefabParentObject: {fileID: 0}
  m_PrefabInternal: {fileID: 0}
  m_GameObject: {fileID: 0}
  m_Enabled: 1
  m_EditorHideFlags: 0
  m_Script: {fileID: 11500000, guid: bb8df160d4c04ca4790ac2205ff47a13, type: 3}
  m_Name: LoveTechnology
  m_EditorClassIdentifier: 
  id: techGood
  headline: Empower Powertech!
  topic: {fileID: 11400000, guid: 59cc251f2eeaa7349b6ce6897c279d80, type: 2}
  targetRange: {x: 80, y: 100}
  baseReward: 50
